%YAML 1.1
%TAG !u! tag:unity3d.com,2011:
--- !u!29 &1
OcclusionCullingSettings:
  m_ObjectHideFlags: 0
  serializedVersion: 2
  m_OcclusionBakeSettings:
    smallestOccluder: 5
    smallestHole: 0.25
    backfaceThreshold: 100
  m_SceneGUID: 00000000000000000000000000000000
  m_OcclusionCullingData: {fileID: 0}
--- !u!104 &2
RenderSettings:
  m_ObjectHideFlags: 0
  serializedVersion: 8
  m_Fog: 0
  m_FogColor: {r: 0.5, g: 0.5, b: 0.5, a: 1}
  m_FogMode: 3
  m_FogDensity: 0.01
  m_LinearFogStart: 0
  m_LinearFogEnd: 300
  m_AmbientSkyColor: {r: 0.2, g: 0.2, b: 0.2, a: 1}
  m_AmbientEquatorColor: {r: 0.2, g: 0.2, b: 0.2, a: 1}
  m_AmbientGroundColor: {r: 0.2, g: 0.2, b: 0.2, a: 1}
  m_AmbientIntensity: 1
  m_AmbientMode: 3
  m_SubtractiveShadowColor: {r: 0.42, g: 0.478, b: 0.627, a: 1}
  m_SkyboxMaterial: {fileID: 0}
  m_HaloStrength: 0.5
  m_FlareStrength: 1
  m_FlareFadeSpeed: 3
  m_HaloTexture: {fileID: 0}
  m_SpotCookie: {fileID: 10001, guid: 0000000000000000e000000000000000, type: 0}
  m_DefaultReflectionMode: 0
  m_DefaultReflectionResolution: 128
  m_ReflectionBounces: 1
  m_ReflectionIntensity: 1
  m_CustomReflection: {fileID: 0}
  m_Sun: {fileID: 0}
  m_IndirectSpecularColor: {r: 0, g: 0, b: 0, a: 1}
--- !u!196 &3
NavMeshSettings:
  serializedVersion: 2
  m_ObjectHideFlags: 0
  m_BuildSettings:
    serializedVersion: 2
    agentTypeID: 0
    agentRadius: 0.5
    agentHeight: 2
    agentSlope: 45
    agentClimb: 0.4
    ledgeDropHeight: 0
    maxJumpAcrossDistance: 0
    minRegionArea: 2
    manualCellSize: 0
    cellSize: 0.16666667
    manualTileSize: 0
    tileSize: 256
    accuratePlacement: 0
    debug:
      m_Flags: 0
  m_NavMeshData: {fileID: 0}
--- !u!157 &4
LightmapSettings:
  m_ObjectHideFlags: 0
  serializedVersion: 11
  m_GIWorkflowMode: 1
  m_GISettings:
    serializedVersion: 2
    m_BounceScale: 1
    m_IndirectOutputScale: 1
    m_AlbedoBoost: 1
    m_TemporalCoherenceThreshold: 1
    m_EnvironmentLightingMode: 0
    m_EnableBakedLightmaps: 1
    m_EnableRealtimeLightmaps: 0
  m_LightmapEditorSettings:
    serializedVersion: 9
    m_Resolution: 1
    m_BakeResolution: 50
    m_TextureWidth: 1024
    m_TextureHeight: 1024
    m_AO: 1
    m_AOMaxDistance: 1
    m_CompAOExponent: 1
    m_CompAOExponentDirect: 0
    m_Padding: 2
    m_LightmapParameters: {fileID: 0}
    m_LightmapsBakeMode: 1
    m_TextureCompression: 0
    m_FinalGather: 0
    m_FinalGatherFiltering: 1
    m_FinalGatherRayCount: 256
    m_ReflectionCompression: 2
    m_MixedBakeMode: 1
    m_BakeBackend: 0
    m_PVRSampling: 1
    m_PVRDirectSampleCount: 32
    m_PVRSampleCount: 500
    m_PVRBounces: 2
    m_PVRFilterTypeDirect: 0
    m_PVRFilterTypeIndirect: 0
    m_PVRFilterTypeAO: 0
    m_PVRFilteringMode: 0
    m_PVRCulling: 1
    m_PVRFilteringGaussRadiusDirect: 1
    m_PVRFilteringGaussRadiusIndirect: 5
    m_PVRFilteringGaussRadiusAO: 2
    m_PVRFilteringAtrousPositionSigmaDirect: 0.5
    m_PVRFilteringAtrousPositionSigmaIndirect: 2
    m_PVRFilteringAtrousPositionSigmaAO: 1
    m_ShowResolutionOverlay: 1
  m_LightingDataAsset: {fileID: 0}
  m_UseShadowmask: 0
--- !u!1 &5
GameObject:
  m_ObjectHideFlags: 0
  m_PrefabParentObject: {fileID: 100000, guid: 4a1142b17f64bbc40871f76529421f77, type: 3}
  m_PrefabInternal: {fileID: 80}
  serializedVersion: 5
  m_Component:
  - component: {fileID: 28}
  - component: {fileID: 95}
  m_Layer: 0
  m_Name: AtomBall
  m_TagString: Untagged
  m_Icon: {fileID: 0}
  m_NavMeshLayer: 0
  m_StaticEditorFlags: 0
  m_IsActive: 1
--- !u!1 &6
GameObject:
  m_ObjectHideFlags: 0
  m_PrefabParentObject: {fileID: 100002, guid: 4a1142b17f64bbc40871f76529421f77, type: 3}
  m_PrefabInternal: {fileID: 80}
  serializedVersion: 5
  m_Component:
  - component: {fileID: 29}
  - component: {fileID: 64}
  - component: {fileID: 52}
  m_Layer: 0
  m_Name: AtomBallLines
  m_TagString: Untagged
  m_Icon: {fileID: 0}
  m_NavMeshLayer: 0
  m_StaticEditorFlags: 0
  m_IsActive: 1
--- !u!1 &7
GameObject:
  m_ObjectHideFlags: 0
  m_PrefabParentObject: {fileID: 100004, guid: 4a1142b17f64bbc40871f76529421f77, type: 3}
  m_PrefabInternal: {fileID: 80}
  serializedVersion: 5
  m_Component:
  - component: {fileID: 30}
  - component: {fileID: 65}
  - component: {fileID: 53}
  m_Layer: 0
  m_Name: AtomBallSpheres
  m_TagString: Untagged
  m_Icon: {fileID: 0}
  m_NavMeshLayer: 0
  m_StaticEditorFlags: 0
  m_IsActive: 1
--- !u!1 &8
GameObject:
  m_ObjectHideFlags: 0
  m_PrefabParentObject: {fileID: 100004, guid: 38972d9a807375f4fbdbf2e076aa183f, type: 3}
  m_PrefabInternal: {fileID: 81}
  serializedVersion: 5
  m_Component:
  - component: {fileID: 31}
  - component: {fileID: 66}
  - component: {fileID: 54}
  m_Layer: 0
  m_Name: BombTop
  m_TagString: Untagged
  m_Icon: {fileID: 0}
  m_NavMeshLayer: 0
  m_StaticEditorFlags: 0
  m_IsActive: 1
--- !u!1 &9
GameObject:
  m_ObjectHideFlags: 0
  m_PrefabParentObject: {fileID: 100002, guid: 38972d9a807375f4fbdbf2e076aa183f, type: 3}
  m_PrefabInternal: {fileID: 81}
  serializedVersion: 5
  m_Component:
  - component: {fileID: 32}
  - component: {fileID: 94}
  m_Layer: 0
  m_Name: BombBall
  m_TagString: Untagged
  m_Icon: {fileID: 0}
  m_NavMeshLayer: 0
  m_StaticEditorFlags: 0
  m_IsActive: 1
--- !u!1 &10
GameObject:
  m_ObjectHideFlags: 0
  m_PrefabParentObject: {fileID: 100000, guid: 38972d9a807375f4fbdbf2e076aa183f, type: 3}
  m_PrefabInternal: {fileID: 81}
  serializedVersion: 5
  m_Component:
  - component: {fileID: 33}
  - component: {fileID: 67}
  - component: {fileID: 55}
  m_Layer: 0
  m_Name: BombBall
  m_TagString: Untagged
  m_Icon: {fileID: 0}
  m_NavMeshLayer: 0
  m_StaticEditorFlags: 0
  m_IsActive: 1
--- !u!1 &11
GameObject:
  m_ObjectHideFlags: 0
  m_PrefabParentObject: {fileID: 100006, guid: 38972d9a807375f4fbdbf2e076aa183f, type: 3}
  m_PrefabInternal: {fileID: 81}
  serializedVersion: 5
  m_Component:
  - component: {fileID: 34}
  - component: {fileID: 68}
  - component: {fileID: 56}
  m_Layer: 0
  m_Name: BombWick
  m_TagString: Untagged
  m_Icon: {fileID: 0}
  m_NavMeshLayer: 0
  m_StaticEditorFlags: 0
  m_IsActive: 1
--- !u!1 &12
GameObject:
  m_ObjectHideFlags: 0
  m_PrefabParentObject: {fileID: 100004, guid: a97bdcf094fff104d9f67b004b505dd0, type: 3}
  m_PrefabInternal: {fileID: 82}
  serializedVersion: 5
  m_Component:
  - component: {fileID: 35}
  - component: {fileID: 69}
  - component: {fileID: 57}
  m_Layer: 0
  m_Name: BuckyBallLines
  m_TagString: Untagged
  m_Icon: {fileID: 0}
  m_NavMeshLayer: 0
  m_StaticEditorFlags: 0
  m_IsActive: 1
--- !u!1 &13
GameObject:
  m_ObjectHideFlags: 0
  m_PrefabParentObject: {fileID: 100002, guid: a97bdcf094fff104d9f67b004b505dd0, type: 3}
  m_PrefabInternal: {fileID: 82}
  serializedVersion: 5
  m_Component:
  - component: {fileID: 36}
  - component: {fileID: 70}
  - component: {fileID: 58}
  m_Layer: 0
  m_Name: BuckyBallAtoms
  m_TagString: Untagged
  m_Icon: {fileID: 0}
  m_NavMeshLayer: 0
  m_StaticEditorFlags: 0
  m_IsActive: 1
--- !u!1 &14
GameObject:
  m_ObjectHideFlags: 0
  m_PrefabParentObject: {fileID: 100000, guid: a97bdcf094fff104d9f67b004b505dd0, type: 3}
  m_PrefabInternal: {fileID: 82}
  serializedVersion: 5
  m_Component:
  - component: {fileID: 37}
  - component: {fileID: 93}
  m_Layer: 0
  m_Name: BuckyBall
  m_TagString: Untagged
  m_Icon: {fileID: 0}
  m_NavMeshLayer: 0
  m_StaticEditorFlags: 0
  m_IsActive: 1
--- !u!1 &15
GameObject:
  m_ObjectHideFlags: 0
  m_PrefabParentObject: {fileID: 100002, guid: 5f603b8c73c81724b9bdc1c65764eb4c, type: 3}
  m_PrefabInternal: {fileID: 83}
  serializedVersion: 5
  m_Component:
  - component: {fileID: 38}
  - component: {fileID: 92}
  m_Layer: 0
  m_Name: EyeBall
  m_TagString: Untagged
  m_Icon: {fileID: 0}
  m_NavMeshLayer: 0
  m_StaticEditorFlags: 0
  m_IsActive: 1
--- !u!1 &16
GameObject:
  m_ObjectHideFlags: 0
  m_PrefabParentObject: {fileID: 100000, guid: 5f603b8c73c81724b9bdc1c65764eb4c, type: 3}
  m_PrefabInternal: {fileID: 83}
  serializedVersion: 5
  m_Component:
  - component: {fileID: 39}
  - component: {fileID: 71}
  - component: {fileID: 59}
  m_Layer: 0
  m_Name: EyeBall
  m_TagString: Untagged
  m_Icon: {fileID: 0}
  m_NavMeshLayer: 0
  m_StaticEditorFlags: 0
  m_IsActive: 1
--- !u!1 &17
GameObject:
  m_ObjectHideFlags: 0
  m_PrefabParentObject: {fileID: 100002, guid: c455996f6e6b49d418895f41b5216202, type: 3}
  m_PrefabInternal: {fileID: 84}
  serializedVersion: 5
  m_Component:
  - component: {fileID: 40}
  - component: {fileID: 91}
  m_Layer: 0
  m_Name: SpikeBall
  m_TagString: Untagged
  m_Icon: {fileID: 0}
  m_NavMeshLayer: 0
  m_StaticEditorFlags: 0
  m_IsActive: 1
--- !u!1 &18
GameObject:
  m_ObjectHideFlags: 0
  m_PrefabParentObject: {fileID: 100000, guid: c455996f6e6b49d418895f41b5216202, type: 3}
  m_PrefabInternal: {fileID: 84}
  serializedVersion: 5
  m_Component:
  - component: {fileID: 41}
  - component: {fileID: 72}
  - component: {fileID: 60}
  m_Layer: 0
  m_Name: SpikeBall
  m_TagString: Untagged
  m_Icon: {fileID: 0}
  m_NavMeshLayer: 0
  m_StaticEditorFlags: 0
  m_IsActive: 1
--- !u!1 &19
GameObject:
  m_ObjectHideFlags: 0
  m_PrefabParentObject: {fileID: 100000, guid: 5ae1b6d4c894f9c449d33837a633a8ec, type: 3}
  m_PrefabInternal: {fileID: 85}
  serializedVersion: 5
  m_Component:
  - component: {fileID: 42}
  - component: {fileID: 73}
  - component: {fileID: 61}
  m_Layer: 0
  m_Name: SplitMetalBall
  m_TagString: Untagged
  m_Icon: {fileID: 0}
  m_NavMeshLayer: 0
  m_StaticEditorFlags: 0
  m_IsActive: 1
--- !u!1 &20
GameObject:
  m_ObjectHideFlags: 0
  m_PrefabParentObject: {fileID: 100002, guid: 5ae1b6d4c894f9c449d33837a633a8ec, type: 3}
  m_PrefabInternal: {fileID: 85}
  serializedVersion: 5
  m_Component:
  - component: {fileID: 43}
  - component: {fileID: 90}
  m_Layer: 0
  m_Name: SplitMetalBall
  m_TagString: Untagged
  m_Icon: {fileID: 0}
  m_NavMeshLayer: 0
  m_StaticEditorFlags: 0
  m_IsActive: 1
--- !u!1 &21
GameObject:
  m_ObjectHideFlags: 0
  m_PrefabParentObject: {fileID: 100000, guid: 61566139d5c1f844aaa682fa50106e58, type: 3}
  m_PrefabInternal: {fileID: 86}
  serializedVersion: 5
  m_Component:
  - component: {fileID: 44}
  - component: {fileID: 74}
  - component: {fileID: 62}
  m_Layer: 0
  m_Name: WoodenBall
  m_TagString: Untagged
  m_Icon: {fileID: 0}
  m_NavMeshLayer: 0
  m_StaticEditorFlags: 0
  m_IsActive: 1
--- !u!1 &22
GameObject:
  m_ObjectHideFlags: 0
  m_PrefabParentObject: {fileID: 100002, guid: 61566139d5c1f844aaa682fa50106e58, type: 3}
  m_PrefabInternal: {fileID: 86}
  serializedVersion: 5
  m_Component:
  - component: {fileID: 45}
  - component: {fileID: 89}
  m_Layer: 0
  m_Name: WoodenBall
  m_TagString: Untagged
  m_Icon: {fileID: 0}
  m_NavMeshLayer: 0
  m_StaticEditorFlags: 0
  m_IsActive: 1
--- !u!1 &23
GameObject:
  m_ObjectHideFlags: 0
  m_PrefabParentObject: {fileID: 100000, guid: 74cbada03bcd41d49acec56746acf71e, type: 3}
  m_PrefabInternal: {fileID: 87}
  serializedVersion: 5
  m_Component:
  - component: {fileID: 46}
  - component: {fileID: 75}
  - component: {fileID: 63}
  m_Layer: 0
  m_Name: WheelBall
  m_TagString: Untagged
  m_Icon: {fileID: 0}
  m_NavMeshLayer: 0
  m_StaticEditorFlags: 0
  m_IsActive: 1
--- !u!1 &24
GameObject:
  m_ObjectHideFlags: 0
  m_PrefabParentObject: {fileID: 100002, guid: 74cbada03bcd41d49acec56746acf71e, type: 3}
  m_PrefabInternal: {fileID: 87}
  serializedVersion: 5
  m_Component:
  - component: {fileID: 47}
  - component: {fileID: 88}
  m_Layer: 0
  m_Name: WheelBall
  m_TagString: Untagged
  m_Icon: {fileID: 0}
  m_NavMeshLayer: 0
  m_StaticEditorFlags: 0
  m_IsActive: 1
--- !u!1 &25
GameObject:
  m_ObjectHideFlags: 0
  m_PrefabParentObject: {fileID: 0}
  m_PrefabInternal: {fileID: 0}
  serializedVersion: 5
  m_Component:
  - component: {fileID: 48}
  m_Layer: 0
  m_Name: Balls
  m_TagString: Untagged
  m_Icon: {fileID: 0}
  m_NavMeshLayer: 0
  m_StaticEditorFlags: 0
  m_IsActive: 1
--- !u!1 &26
GameObject:
  m_ObjectHideFlags: 0
  m_PrefabParentObject: {fileID: 0}
  m_PrefabInternal: {fileID: 0}
  serializedVersion: 5
  m_Component:
  - component: {fileID: 49}
  - component: {fileID: 78}
  m_Layer: 0
  m_Name: Directional light
  m_TagString: Untagged
  m_Icon: {fileID: 0}
  m_NavMeshLayer: 0
  m_StaticEditorFlags: 0
  m_IsActive: 1
--- !u!1 &27
GameObject:
  m_ObjectHideFlags: 0
  m_PrefabParentObject: {fileID: 0}
  m_PrefabInternal: {fileID: 0}
  serializedVersion: 5
  m_Component:
  - component: {fileID: 50}
  - component: {fileID: 51}
  - component: {fileID: 77}
  - component: {fileID: 79}
  - component: {fileID: 76}
  m_Layer: 0
  m_Name: Main Camera
  m_TagString: MainCamera
  m_Icon: {fileID: 0}
  m_NavMeshLayer: 0
  m_StaticEditorFlags: 0
  m_IsActive: 1
--- !u!4 &28
Transform:
  m_ObjectHideFlags: 0
  m_PrefabParentObject: {fileID: 400000, guid: 4a1142b17f64bbc40871f76529421f77, type: 3}
  m_PrefabInternal: {fileID: 80}
  m_GameObject: {fileID: 5}
  m_LocalRotation: {x: 0, y: 0, z: 0, w: 1}
  m_LocalPosition: {x: 0, y: 0, z: -1}
  m_LocalScale: {x: 1, y: 1, z: 1}
  m_Children:
  - {fileID: 29}
  - {fileID: 30}
  m_Father: {fileID: 48}
  m_RootOrder: 0
  m_LocalEulerAnglesHint: {x: 0, y: 0, z: 0}
--- !u!4 &29
Transform:
  m_ObjectHideFlags: 0
  m_PrefabParentObject: {fileID: 400002, guid: 4a1142b17f64bbc40871f76529421f77, type: 3}
  m_PrefabInternal: {fileID: 80}
  m_GameObject: {fileID: 6}
  m_LocalRotation: {x: -0.7010574, y: 0.09229595, z: -0.09229596, w: 0.7010574}
  m_LocalPosition: {x: 0.000041365623, y: 0.00007702411, z: 0.00013083965}
  m_LocalScale: {x: 0.5000001, y: 0.5, z: 0.5000001}
  m_Children: []
  m_Father: {fileID: 28}
  m_RootOrder: 0
  m_LocalEulerAnglesHint: {x: 0, y: 0, z: 0}
--- !u!4 &30
Transform:
  m_ObjectHideFlags: 0
  m_PrefabParentObject: {fileID: 400004, guid: 4a1142b17f64bbc40871f76529421f77, type: 3}
  m_PrefabInternal: {fileID: 80}
  m_GameObject: {fileID: 7}
  m_LocalRotation: {x: -4.32978e-17, y: 0.7071067, z: 0.7071068, w: -4.3297806e-17}
  m_LocalPosition: {x: -0.32736272, y: -0.29009324, z: -0.15955476}
  m_LocalScale: {x: 0.054317415, y: 0.054317415, z: -0.054317415}
  m_Children: []
  m_Father: {fileID: 28}
  m_RootOrder: 1
  m_LocalEulerAnglesHint: {x: 0, y: 0, z: 0}
--- !u!4 &31
Transform:
  m_ObjectHideFlags: 0
  m_PrefabParentObject: {fileID: 400004, guid: 38972d9a807375f4fbdbf2e076aa183f, type: 3}
  m_PrefabInternal: {fileID: 81}
  m_GameObject: {fileID: 8}
  m_LocalRotation: {x: 1.6493362e-15, y: 7.417649e-16, z: -8.8139125e-16, w: 1}
  m_LocalPosition: {x: -1e-15, y: 3e-15, z: 1.0352092}
  m_LocalScale: {x: 0.30240002, y: 0.30240002, z: 0.56}
  m_Children: []
  m_Father: {fileID: 33}
  m_RootOrder: 0
  m_LocalEulerAnglesHint: {x: 0, y: 0, z: 0}
--- !u!4 &32
Transform:
  m_ObjectHideFlags: 0
  m_PrefabParentObject: {fileID: 400002, guid: 38972d9a807375f4fbdbf2e076aa183f, type: 3}
  m_PrefabInternal: {fileID: 81}
  m_GameObject: {fileID: 9}
  m_LocalRotation: {x: 0, y: -0, z: -0, w: 1}
  m_LocalPosition: {x: -0, y: 0, z: 0}
  m_LocalScale: {x: 1, y: 1, z: 1}
  m_Children:
  - {fileID: 33}
  - {fileID: 34}
  m_Father: {fileID: 48}
  m_RootOrder: 1
  m_LocalEulerAnglesHint: {x: 0, y: 0, z: 0}
--- !u!4 &33
Transform:
  m_ObjectHideFlags: 0
  m_PrefabParentObject: {fileID: 400000, guid: 38972d9a807375f4fbdbf2e076aa183f, type: 3}
  m_PrefabInternal: {fileID: 81}
  m_GameObject: {fileID: 10}
  m_LocalRotation: {x: -0.7071067, y: 0, z: 0, w: 0.7071068}
  m_LocalPosition: {x: 1.110622, y: 0, z: 0}
  m_LocalScale: {x: 0.5, y: 0.5, z: 0.5}
  m_Children:
  - {fileID: 31}
  m_Father: {fileID: 32}
  m_RootOrder: 0
  m_LocalEulerAnglesHint: {x: 0, y: 0, z: 0}
--- !u!4 &34
Transform:
  m_ObjectHideFlags: 0
  m_PrefabParentObject: {fileID: 400006, guid: 38972d9a807375f4fbdbf2e076aa183f, type: 3}
  m_PrefabInternal: {fileID: 81}
  m_GameObject: {fileID: 11}
  m_LocalRotation: {x: -0.5, y: 0.5, z: 0.49999994, w: 0.50000006}
  m_LocalPosition: {x: -0.000000029802322, y: 0.47308102, z: -0.00000002067903}
  m_LocalScale: {x: 0.5, y: 0.5, z: 0.13586521}
  m_Children: []
  m_Father: {fileID: 32}
  m_RootOrder: 1
  m_LocalEulerAnglesHint: {x: 0, y: 0, z: 0}
--- !u!4 &35
Transform:
  m_ObjectHideFlags: 0
  m_PrefabParentObject: {fileID: 400004, guid: a97bdcf094fff104d9f67b004b505dd0, type: 3}
  m_PrefabInternal: {fileID: 82}
  m_GameObject: {fileID: 12}
  m_LocalRotation: {x: -0.7071068, y: 0, z: -0, w: 0.7071068}
  m_LocalPosition: {x: -0, y: 0, z: 0}
  m_LocalScale: {x: 0.5, y: 0.5, z: 0.5}
  m_Children: []
  m_Father: {fileID: 37}
  m_RootOrder: 1
  m_LocalEulerAnglesHint: {x: 0, y: 0, z: 0}
--- !u!4 &36
Transform:
  m_ObjectHideFlags: 0
  m_PrefabParentObject: {fileID: 400002, guid: a97bdcf094fff104d9f67b004b505dd0, type: 3}
  m_PrefabInternal: {fileID: 82}
  m_GameObject: {fileID: 13}
  m_LocalRotation: {x: 0, y: 0, z: 0, w: 1}
  m_LocalPosition: {x: 0.6819666, y: 0.4751892, z: 0.7170386}
  m_LocalScale: {x: 0.054317415, y: 0.054317415, z: -0.054317415}
  m_Children: []
  m_Father: {fileID: 37}
  m_RootOrder: 0
  m_LocalEulerAnglesHint: {x: 0, y: 0, z: 0}
--- !u!4 &37
Transform:
  m_ObjectHideFlags: 0
  m_PrefabParentObject: {fileID: 400000, guid: a97bdcf094fff104d9f67b004b505dd0, type: 3}
  m_PrefabInternal: {fileID: 82}
  m_GameObject: {fileID: 14}
  m_LocalRotation: {x: 0, y: -0, z: -0, w: 1}
  m_LocalPosition: {x: -0, y: 0, z: 0}
  m_LocalScale: {x: 1, y: 1, z: 1}
  m_Children:
  - {fileID: 36}
  - {fileID: 35}
  m_Father: {fileID: 48}
  m_RootOrder: 2
  m_LocalEulerAnglesHint: {x: 0, y: 0, z: 0}
--- !u!4 &38
Transform:
  m_ObjectHideFlags: 0
  m_PrefabParentObject: {fileID: 400002, guid: 5f603b8c73c81724b9bdc1c65764eb4c, type: 3}
  m_PrefabInternal: {fileID: 83}
  m_GameObject: {fileID: 15}
  m_LocalRotation: {x: 0, y: 0.57858044, z: 0, w: 0.8156253}
  m_LocalPosition: {x: -1.281634, y: 0.1350031, z: 0.3277045}
  m_LocalScale: {x: 1, y: 1, z: 1}
  m_Children:
  - {fileID: 39}
  m_Father: {fileID: 48}
  m_RootOrder: 3
  m_LocalEulerAnglesHint: {x: 0, y: 0, z: 0}
--- !u!4 &39
Transform:
  m_ObjectHideFlags: 0
  m_PrefabParentObject: {fileID: 400000, guid: 5f603b8c73c81724b9bdc1c65764eb4c, type: 3}
  m_PrefabInternal: {fileID: 83}
  m_GameObject: {fileID: 16}
  m_LocalRotation: {x: 0.00000009415696, y: 0.7071068, z: 0.7071067, w: -0.00000009415697}
  m_LocalPosition: {x: -0, y: 0, z: 0}
  m_LocalScale: {x: 0.5, y: 0.5, z: 0.5}
  m_Children: []
  m_Father: {fileID: 38}
  m_RootOrder: 0
  m_LocalEulerAnglesHint: {x: 0, y: 0, z: 0}
--- !u!4 &40
Transform:
  m_ObjectHideFlags: 0
  m_PrefabParentObject: {fileID: 400002, guid: c455996f6e6b49d418895f41b5216202, type: 3}
  m_PrefabInternal: {fileID: 84}
  m_GameObject: {fileID: 17}
  m_LocalRotation: {x: 0, y: 0, z: 0, w: 1}
  m_LocalPosition: {x: -0.5604876, y: 0.40147972, z: 1.8187208}
  m_LocalScale: {x: 1, y: 1, z: 1}
  m_Children:
  - {fileID: 41}
  m_Father: {fileID: 48}
  m_RootOrder: 4
  m_LocalEulerAnglesHint: {x: 0, y: 0, z: 0}
--- !u!4 &41
Transform:
  m_ObjectHideFlags: 0
  m_PrefabParentObject: {fileID: 400000, guid: c455996f6e6b49d418895f41b5216202, type: 3}
  m_PrefabInternal: {fileID: 84}
  m_GameObject: {fileID: 18}
  m_LocalRotation: {x: -0.7071068, y: 0, z: -0, w: 0.7071068}
  m_LocalPosition: {x: -0, y: 0, z: 0}
  m_LocalScale: {x: 1, y: 1, z: 1}
  m_Children: []
  m_Father: {fileID: 40}
  m_RootOrder: 0
  m_LocalEulerAnglesHint: {x: 0, y: 0, z: 0}
--- !u!4 &42
Transform:
  m_ObjectHideFlags: 0
  m_PrefabParentObject: {fileID: 400000, guid: 5ae1b6d4c894f9c449d33837a633a8ec, type: 3}
  m_PrefabInternal: {fileID: 85}
  m_GameObject: {fileID: 19}
  m_LocalRotation: {x: 0.7071068, y: 0.7071067, z: -0.000000109611264, w: -0.00000007870266}
  m_LocalPosition: {x: -0, y: 0, z: 0}
  m_LocalScale: {x: 0.5, y: 0.5, z: 0.5}
  m_Children: []
  m_Father: {fileID: 43}
  m_RootOrder: 0
  m_LocalEulerAnglesHint: {x: 0, y: 0, z: 0}
--- !u!4 &43
Transform:
  m_ObjectHideFlags: 0
  m_PrefabParentObject: {fileID: 400002, guid: 5ae1b6d4c894f9c449d33837a633a8ec, type: 3}
  m_PrefabInternal: {fileID: 85}
  m_GameObject: {fileID: 20}
  m_LocalRotation: {x: 0, y: 0.50944495, z: 0, w: 0.8605033}
  m_LocalPosition: {x: 1.1104612, y: 0, z: -1}
  m_LocalScale: {x: 1, y: 1, z: 1}
  m_Children:
  - {fileID: 42}
  m_Father: {fileID: 48}
  m_RootOrder: 5
  m_LocalEulerAnglesHint: {x: 0, y: 0, z: 0}
--- !u!4 &44
Transform:
  m_ObjectHideFlags: 0
  m_PrefabParentObject: {fileID: 400000, guid: 61566139d5c1f844aaa682fa50106e58, type: 3}
  m_PrefabInternal: {fileID: 86}
  m_GameObject: {fileID: 21}
  m_LocalRotation: {x: -0.7071068, y: 0.000000061817246, z: 0.00000006181724, w: 0.7071068}
  m_LocalPosition: {x: -0, y: 0, z: 0}
  m_LocalScale: {x: 0.5, y: 0.5, z: 0.5}
  m_Children: []
  m_Father: {fileID: 45}
  m_RootOrder: 0
  m_LocalEulerAnglesHint: {x: 0, y: 0, z: 0}
--- !u!4 &45
Transform:
  m_ObjectHideFlags: 0
  m_PrefabParentObject: {fileID: 400002, guid: 61566139d5c1f844aaa682fa50106e58, type: 3}
  m_PrefabInternal: {fileID: 86}
  m_GameObject: {fileID: 22}
  m_LocalRotation: {x: 0, y: 0.16481043, z: 0, w: 0.9863253}
  m_LocalPosition: {x: -0.17189002, y: 0.18015194, z: 0}
  m_LocalScale: {x: 1, y: 1, z: 1}
  m_Children:
  - {fileID: 44}
  m_Father: {fileID: 48}
  m_RootOrder: 6
  m_LocalEulerAnglesHint: {x: 0, y: 0, z: 0}
--- !u!4 &46
Transform:
  m_ObjectHideFlags: 0
  m_PrefabParentObject: {fileID: 400000, guid: 74cbada03bcd41d49acec56746acf71e, type: 3}
  m_PrefabInternal: {fileID: 87}
  m_GameObject: {fileID: 23}
  m_LocalRotation: {x: 0.7071068, y: -0.7071067, z: 0.000000109611264, w: -0.00000007870266}
  m_LocalPosition: {x: -0, y: 0, z: 0}
  m_LocalScale: {x: 0.5, y: 0.5, z: 0.63137704}
  m_Children: []
  m_Father: {fileID: 47}
  m_RootOrder: 0
  m_LocalEulerAnglesHint: {x: 0, y: 0, z: 0}
--- !u!4 &47
Transform:
  m_ObjectHideFlags: 0
  m_PrefabParentObject: {fileID: 400002, guid: 74cbada03bcd41d49acec56746acf71e, type: 3}
  m_PrefabInternal: {fileID: 87}
  m_GameObject: {fileID: 24}
  m_LocalRotation: {x: 0, y: -0.20535421, z: 0, w: 0.9786877}
  m_LocalPosition: {x: -1.1607732, y: 0, z: -1}
  m_LocalScale: {x: 1, y: 1, z: 1}
  m_Children:
  - {fileID: 46}
  m_Father: {fileID: 48}
  m_RootOrder: 7
  m_LocalEulerAnglesHint: {x: 0, y: 0, z: 0}
--- !u!4 &48
Transform:
  m_ObjectHideFlags: 0
  m_PrefabParentObject: {fileID: 0}
  m_PrefabInternal: {fileID: 0}
  m_GameObject: {fileID: 25}
  m_LocalRotation: {x: 0, y: 0, z: 0, w: 1}
  m_LocalPosition: {x: 0, y: 0, z: 0}
  m_LocalScale: {x: 1, y: 1, z: 1}
  m_Children:
  - {fileID: 28}
  - {fileID: 32}
  - {fileID: 37}
  - {fileID: 38}
  - {fileID: 40}
  - {fileID: 43}
  - {fileID: 45}
  - {fileID: 47}
  m_Father: {fileID: 0}
  m_RootOrder: 0
  m_LocalEulerAnglesHint: {x: 0, y: 0, z: 0}
--- !u!4 &49
Transform:
  m_ObjectHideFlags: 0
  m_PrefabParentObject: {fileID: 0}
  m_PrefabInternal: {fileID: 0}
  m_GameObject: {fileID: 26}
  m_LocalRotation: {x: 0.41219863, y: 0.3490998, z: -0.12488488, w: 0.83224124}
  m_LocalPosition: {x: 0, y: 3.605245, z: 0}
  m_LocalScale: {x: 1, y: 1, z: 1}
  m_Children: []
  m_Father: {fileID: 0}
  m_RootOrder: 1
  m_LocalEulerAnglesHint: {x: 0, y: 0, z: 0}
--- !u!4 &50
Transform:
  m_ObjectHideFlags: 0
  m_PrefabParentObject: {fileID: 0}
  m_PrefabInternal: {fileID: 0}
  m_GameObject: {fileID: 27}
  m_LocalRotation: {x: 0.18444622, y: 0, z: 0, w: 0.9828427}
  m_LocalPosition: {x: 0, y: 2.2157001, z: -3.926672}
  m_LocalScale: {x: 1, y: 1, z: 1}
  m_Children: []
  m_Father: {fileID: 0}
  m_RootOrder: 2
  m_LocalEulerAnglesHint: {x: 0, y: 0, z: 0}
--- !u!20 &51
Camera:
  m_ObjectHideFlags: 0
  m_PrefabParentObject: {fileID: 0}
  m_PrefabInternal: {fileID: 0}
  m_GameObject: {fileID: 27}
  m_Enabled: 1
  serializedVersion: 2
  m_ClearFlags: 1
  m_BackGroundColor: {r: 0.19215687, g: 0.3019608, b: 0.4745098, a: 0.019607844}
  m_NormalizedViewPortRect:
    serializedVersion: 2
    x: 0
    y: 0
    width: 1
    height: 1
  near clip plane: 0.3
  far clip plane: 1000
  field of view: 60
  orthographic: 0
  orthographic size: 100
  m_Depth: -1
  m_CullingMask:
    serializedVersion: 2
    m_Bits: 4294967295
  m_RenderingPath: -1
  m_TargetTexture: {fileID: 0}
  m_TargetDisplay: 0
  m_TargetEye: 3
  m_HDR: 1
  m_AllowMSAA: 1
  m_AllowDynamicResolution: 0
  m_ForceIntoRT: 0
  m_OcclusionCulling: 1
  m_StereoConvergence: 10
  m_StereoSeparation: 0.022
--- !u!23 &52
MeshRenderer:
  m_ObjectHideFlags: 0
  m_PrefabParentObject: {fileID: 2300000, guid: 4a1142b17f64bbc40871f76529421f77,
    type: 3}
  m_PrefabInternal: {fileID: 80}
  m_GameObject: {fileID: 6}
  m_Enabled: 1
  m_CastShadows: 1
  m_ReceiveShadows: 1
  m_DynamicOccludee: 1
  m_MotionVectors: 1
  m_LightProbeUsage: 1
  m_ReflectionProbeUsage: 1
  m_Materials:
  - {fileID: 2100000, guid: d355d2972471d4746a975d61cb2d2cd9, type: 2}
  m_StaticBatchInfo:
    firstSubMesh: 0
    subMeshCount: 0
  m_StaticBatchRoot: {fileID: 0}
  m_ProbeAnchor: {fileID: 0}
  m_LightProbeVolumeOverride: {fileID: 0}
  m_ScaleInLightmap: 1
  m_PreserveUVs: 0
  m_IgnoreNormalsForChartDetection: 0
  m_ImportantGI: 0
  m_StitchLightmapSeams: 0
  m_SelectedEditorRenderState: 3
  m_MinimumChartSize: 4
  m_AutoUVMaxDistance: 0.5
  m_AutoUVMaxAngle: 89
  m_LightmapParameters: {fileID: 0}
  m_SortingLayerID: 0
  m_SortingLayer: 0
  m_SortingOrder: 0
--- !u!23 &53
MeshRenderer:
  m_ObjectHideFlags: 0
  m_PrefabParentObject: {fileID: 2300002, guid: 4a1142b17f64bbc40871f76529421f77,
    type: 3}
  m_PrefabInternal: {fileID: 80}
  m_GameObject: {fileID: 7}
  m_Enabled: 1
  m_CastShadows: 1
  m_ReceiveShadows: 1
  m_DynamicOccludee: 1
  m_MotionVectors: 1
  m_LightProbeUsage: 1
  m_ReflectionProbeUsage: 1
  m_Materials:
  - {fileID: 2100000, guid: 5c353f7057da35640bdff38d63dda4d8, type: 2}
  m_StaticBatchInfo:
    firstSubMesh: 0
    subMeshCount: 0
  m_StaticBatchRoot: {fileID: 0}
  m_ProbeAnchor: {fileID: 0}
  m_LightProbeVolumeOverride: {fileID: 0}
  m_ScaleInLightmap: 1
  m_PreserveUVs: 0
  m_IgnoreNormalsForChartDetection: 0
  m_ImportantGI: 0
  m_StitchLightmapSeams: 0
  m_SelectedEditorRenderState: 3
  m_MinimumChartSize: 4
  m_AutoUVMaxDistance: 0.5
  m_AutoUVMaxAngle: 89
  m_LightmapParameters: {fileID: 0}
  m_SortingLayerID: 0
  m_SortingLayer: 0
  m_SortingOrder: 0
--- !u!23 &54
MeshRenderer:
  m_ObjectHideFlags: 0
  m_PrefabParentObject: {fileID: 2300002, guid: 38972d9a807375f4fbdbf2e076aa183f,
    type: 3}
  m_PrefabInternal: {fileID: 81}
  m_GameObject: {fileID: 8}
  m_Enabled: 1
  m_CastShadows: 1
  m_ReceiveShadows: 1
  m_DynamicOccludee: 1
  m_MotionVectors: 1
  m_LightProbeUsage: 1
  m_ReflectionProbeUsage: 1
  m_Materials:
  - {fileID: 2100000, guid: 7717d08fdcc532b449044fc4b21a7b5a, type: 2}
  m_StaticBatchInfo:
    firstSubMesh: 0
    subMeshCount: 0
  m_StaticBatchRoot: {fileID: 0}
  m_ProbeAnchor: {fileID: 0}
  m_LightProbeVolumeOverride: {fileID: 0}
  m_ScaleInLightmap: 1
  m_PreserveUVs: 0
  m_IgnoreNormalsForChartDetection: 0
  m_ImportantGI: 0
  m_StitchLightmapSeams: 0
  m_SelectedEditorRenderState: 3
  m_MinimumChartSize: 4
  m_AutoUVMaxDistance: 0.5
  m_AutoUVMaxAngle: 89
  m_LightmapParameters: {fileID: 0}
  m_SortingLayerID: 0
  m_SortingLayer: 0
  m_SortingOrder: 0
--- !u!23 &55
MeshRenderer:
  m_ObjectHideFlags: 0
  m_PrefabParentObject: {fileID: 2300000, guid: 38972d9a807375f4fbdbf2e076aa183f,
    type: 3}
  m_PrefabInternal: {fileID: 81}
  m_GameObject: {fileID: 10}
  m_Enabled: 1
  m_CastShadows: 1
  m_ReceiveShadows: 1
  m_DynamicOccludee: 1
  m_MotionVectors: 1
  m_LightProbeUsage: 1
  m_ReflectionProbeUsage: 1
  m_Materials:
  - {fileID: 2100000, guid: 7717d08fdcc532b449044fc4b21a7b5a, type: 2}
  m_StaticBatchInfo:
    firstSubMesh: 0
    subMeshCount: 0
  m_StaticBatchRoot: {fileID: 0}
  m_ProbeAnchor: {fileID: 0}
  m_LightProbeVolumeOverride: {fileID: 0}
  m_ScaleInLightmap: 1
  m_PreserveUVs: 0
  m_IgnoreNormalsForChartDetection: 0
  m_ImportantGI: 0
  m_StitchLightmapSeams: 0
  m_SelectedEditorRenderState: 3
  m_MinimumChartSize: 4
  m_AutoUVMaxDistance: 0.5
  m_AutoUVMaxAngle: 89
  m_LightmapParameters: {fileID: 0}
  m_SortingLayerID: 0
  m_SortingLayer: 0
  m_SortingOrder: 0
--- !u!23 &56
MeshRenderer:
  m_ObjectHideFlags: 0
  m_PrefabParentObject: {fileID: 2300004, guid: 38972d9a807375f4fbdbf2e076aa183f,
    type: 3}
  m_PrefabInternal: {fileID: 81}
  m_GameObject: {fileID: 11}
  m_Enabled: 1
  m_CastShadows: 1
  m_ReceiveShadows: 1
  m_DynamicOccludee: 1
  m_MotionVectors: 1
  m_LightProbeUsage: 1
  m_ReflectionProbeUsage: 1
  m_Materials:
  - {fileID: 2100000, guid: 7717d08fdcc532b449044fc4b21a7b5a, type: 2}
  m_StaticBatchInfo:
    firstSubMesh: 0
    subMeshCount: 0
  m_StaticBatchRoot: {fileID: 0}
  m_ProbeAnchor: {fileID: 0}
  m_LightProbeVolumeOverride: {fileID: 0}
  m_ScaleInLightmap: 1
  m_PreserveUVs: 0
  m_IgnoreNormalsForChartDetection: 0
  m_ImportantGI: 0
  m_StitchLightmapSeams: 0
  m_SelectedEditorRenderState: 3
  m_MinimumChartSize: 4
  m_AutoUVMaxDistance: 0.5
  m_AutoUVMaxAngle: 89
  m_LightmapParameters: {fileID: 0}
  m_SortingLayerID: 0
  m_SortingLayer: 0
  m_SortingOrder: 0
--- !u!23 &57
MeshRenderer:
  m_ObjectHideFlags: 0
  m_PrefabParentObject: {fileID: 2300002, guid: a97bdcf094fff104d9f67b004b505dd0,
    type: 3}
  m_PrefabInternal: {fileID: 82}
  m_GameObject: {fileID: 12}
  m_Enabled: 1
  m_CastShadows: 1
  m_ReceiveShadows: 1
  m_DynamicOccludee: 1
  m_MotionVectors: 1
  m_LightProbeUsage: 1
  m_ReflectionProbeUsage: 1
  m_Materials:
  - {fileID: 2100000, guid: a2c3d2a0f149c784ea588359d641513d, type: 2}
  m_StaticBatchInfo:
    firstSubMesh: 0
    subMeshCount: 0
  m_StaticBatchRoot: {fileID: 0}
  m_ProbeAnchor: {fileID: 0}
  m_LightProbeVolumeOverride: {fileID: 0}
  m_ScaleInLightmap: 1
  m_PreserveUVs: 0
  m_IgnoreNormalsForChartDetection: 0
  m_ImportantGI: 0
  m_StitchLightmapSeams: 0
  m_SelectedEditorRenderState: 3
  m_MinimumChartSize: 4
  m_AutoUVMaxDistance: 0.5
  m_AutoUVMaxAngle: 89
  m_LightmapParameters: {fileID: 0}
  m_SortingLayerID: 0
  m_SortingLayer: 0
  m_SortingOrder: 0
--- !u!23 &58
MeshRenderer:
  m_ObjectHideFlags: 0
  m_PrefabParentObject: {fileID: 2300000, guid: a97bdcf094fff104d9f67b004b505dd0,
    type: 3}
  m_PrefabInternal: {fileID: 82}
  m_GameObject: {fileID: 13}
  m_Enabled: 1
  m_CastShadows: 1
  m_ReceiveShadows: 1
  m_DynamicOccludee: 1
  m_MotionVectors: 1
  m_LightProbeUsage: 1
  m_ReflectionProbeUsage: 1
  m_Materials:
  - {fileID: 2100000, guid: a2c3d2a0f149c784ea588359d641513d, type: 2}
  m_StaticBatchInfo:
    firstSubMesh: 0
    subMeshCount: 0
  m_StaticBatchRoot: {fileID: 0}
  m_ProbeAnchor: {fileID: 0}
  m_LightProbeVolumeOverride: {fileID: 0}
  m_ScaleInLightmap: 1
  m_PreserveUVs: 0
  m_IgnoreNormalsForChartDetection: 0
  m_ImportantGI: 0
  m_StitchLightmapSeams: 0
  m_SelectedEditorRenderState: 3
  m_MinimumChartSize: 4
  m_AutoUVMaxDistance: 0.5
  m_AutoUVMaxAngle: 89
  m_LightmapParameters: {fileID: 0}
  m_SortingLayerID: 0
  m_SortingLayer: 0
  m_SortingOrder: 0
--- !u!23 &59
MeshRenderer:
  m_ObjectHideFlags: 0
  m_PrefabParentObject: {fileID: 2300000, guid: 5f603b8c73c81724b9bdc1c65764eb4c,
    type: 3}
  m_PrefabInternal: {fileID: 83}
  m_GameObject: {fileID: 16}
  m_Enabled: 1
  m_CastShadows: 1
  m_ReceiveShadows: 1
  m_DynamicOccludee: 1
  m_MotionVectors: 1
  m_LightProbeUsage: 1
  m_ReflectionProbeUsage: 1
  m_Materials:
  - {fileID: 2100000, guid: 574a32f1fd43e0e498988286b3eeb64b, type: 2}
  m_StaticBatchInfo:
    firstSubMesh: 0
    subMeshCount: 0
  m_StaticBatchRoot: {fileID: 0}
  m_ProbeAnchor: {fileID: 0}
  m_LightProbeVolumeOverride: {fileID: 0}
  m_ScaleInLightmap: 1
  m_PreserveUVs: 0
  m_IgnoreNormalsForChartDetection: 0
  m_ImportantGI: 0
  m_StitchLightmapSeams: 0
  m_SelectedEditorRenderState: 3
  m_MinimumChartSize: 4
  m_AutoUVMaxDistance: 0.5
  m_AutoUVMaxAngle: 89
  m_LightmapParameters: {fileID: 0}
  m_SortingLayerID: 0
  m_SortingLayer: 0
  m_SortingOrder: 0
--- !u!23 &60
MeshRenderer:
  m_ObjectHideFlags: 0
  m_PrefabParentObject: {fileID: 2300000, guid: c455996f6e6b49d418895f41b5216202,
    type: 3}
  m_PrefabInternal: {fileID: 84}
  m_GameObject: {fileID: 18}
  m_Enabled: 1
  m_CastShadows: 1
  m_ReceiveShadows: 1
  m_DynamicOccludee: 1
  m_MotionVectors: 1
  m_LightProbeUsage: 1
  m_ReflectionProbeUsage: 1
  m_Materials:
  - {fileID: 2100000, guid: 056d79484fff9e84dafaa83f1d7ccbb1, type: 2}
  m_StaticBatchInfo:
    firstSubMesh: 0
    subMeshCount: 0
  m_StaticBatchRoot: {fileID: 0}
  m_ProbeAnchor: {fileID: 0}
  m_LightProbeVolumeOverride: {fileID: 0}
  m_ScaleInLightmap: 1
  m_PreserveUVs: 0
  m_IgnoreNormalsForChartDetection: 0
  m_ImportantGI: 0
  m_StitchLightmapSeams: 0
  m_SelectedEditorRenderState: 3
  m_MinimumChartSize: 4
  m_AutoUVMaxDistance: 0.5
  m_AutoUVMaxAngle: 89
  m_LightmapParameters: {fileID: 0}
  m_SortingLayerID: 0
  m_SortingLayer: 0
  m_SortingOrder: 0
--- !u!23 &61
MeshRenderer:
  m_ObjectHideFlags: 0
  m_PrefabParentObject: {fileID: 2300000, guid: 5ae1b6d4c894f9c449d33837a633a8ec,
    type: 3}
  m_PrefabInternal: {fileID: 85}
  m_GameObject: {fileID: 19}
  m_Enabled: 1
  m_CastShadows: 1
  m_ReceiveShadows: 1
  m_DynamicOccludee: 1
  m_MotionVectors: 1
  m_LightProbeUsage: 1
  m_ReflectionProbeUsage: 1
  m_Materials:
  - {fileID: 2100000, guid: 6a15b1f15432b6f4b9a8066e1e6ca4df, type: 2}
  m_StaticBatchInfo:
    firstSubMesh: 0
    subMeshCount: 0
  m_StaticBatchRoot: {fileID: 0}
  m_ProbeAnchor: {fileID: 0}
  m_LightProbeVolumeOverride: {fileID: 0}
  m_ScaleInLightmap: 1
  m_PreserveUVs: 0
  m_IgnoreNormalsForChartDetection: 0
  m_ImportantGI: 0
  m_StitchLightmapSeams: 0
  m_SelectedEditorRenderState: 3
  m_MinimumChartSize: 4
  m_AutoUVMaxDistance: 0.5
  m_AutoUVMaxAngle: 89
  m_LightmapParameters: {fileID: 0}
  m_SortingLayerID: 0
  m_SortingLayer: 0
  m_SortingOrder: 0
--- !u!23 &62
MeshRenderer:
  m_ObjectHideFlags: 0
  m_PrefabParentObject: {fileID: 2300000, guid: 61566139d5c1f844aaa682fa50106e58,
    type: 3}
  m_PrefabInternal: {fileID: 86}
  m_GameObject: {fileID: 21}
  m_Enabled: 1
  m_CastShadows: 1
  m_ReceiveShadows: 1
  m_DynamicOccludee: 1
  m_MotionVectors: 1
  m_LightProbeUsage: 1
  m_ReflectionProbeUsage: 1
  m_Materials:
  - {fileID: 2100000, guid: 846721efcb18b9b459ce40b282e84240, type: 2}
  m_StaticBatchInfo:
    firstSubMesh: 0
    subMeshCount: 0
  m_StaticBatchRoot: {fileID: 0}
  m_ProbeAnchor: {fileID: 0}
  m_LightProbeVolumeOverride: {fileID: 0}
  m_ScaleInLightmap: 1
  m_PreserveUVs: 0
  m_IgnoreNormalsForChartDetection: 0
  m_ImportantGI: 0
  m_StitchLightmapSeams: 0
  m_SelectedEditorRenderState: 3
  m_MinimumChartSize: 4
  m_AutoUVMaxDistance: 0.5
  m_AutoUVMaxAngle: 89
  m_LightmapParameters: {fileID: 0}
  m_SortingLayerID: 0
  m_SortingLayer: 0
  m_SortingOrder: 0
--- !u!23 &63
MeshRenderer:
  m_ObjectHideFlags: 0
  m_PrefabParentObject: {fileID: 2300000, guid: 74cbada03bcd41d49acec56746acf71e,
    type: 3}
  m_PrefabInternal: {fileID: 87}
  m_GameObject: {fileID: 23}
  m_Enabled: 1
  m_CastShadows: 1
  m_ReceiveShadows: 1
  m_DynamicOccludee: 1
  m_MotionVectors: 1
  m_LightProbeUsage: 1
  m_ReflectionProbeUsage: 1
  m_Materials:
  - {fileID: 2100000, guid: 40db05b0756f19c43ae471505d9b8ce5, type: 2}
  m_StaticBatchInfo:
    firstSubMesh: 0
    subMeshCount: 0
  m_StaticBatchRoot: {fileID: 0}
  m_ProbeAnchor: {fileID: 0}
  m_LightProbeVolumeOverride: {fileID: 0}
  m_ScaleInLightmap: 1
  m_PreserveUVs: 0
  m_IgnoreNormalsForChartDetection: 0
  m_ImportantGI: 0
  m_StitchLightmapSeams: 0
  m_SelectedEditorRenderState: 3
  m_MinimumChartSize: 4
  m_AutoUVMaxDistance: 0.5
  m_AutoUVMaxAngle: 89
  m_LightmapParameters: {fileID: 0}
  m_SortingLayerID: 0
  m_SortingLayer: 0
  m_SortingOrder: 0
--- !u!33 &64
MeshFilter:
  m_ObjectHideFlags: 0
  m_PrefabParentObject: {fileID: 3300000, guid: 4a1142b17f64bbc40871f76529421f77,
    type: 3}
  m_PrefabInternal: {fileID: 80}
  m_GameObject: {fileID: 6}
  m_Mesh: {fileID: 4300002, guid: 4a1142b17f64bbc40871f76529421f77, type: 3}
--- !u!33 &65
MeshFilter:
  m_ObjectHideFlags: 0
  m_PrefabParentObject: {fileID: 3300002, guid: 4a1142b17f64bbc40871f76529421f77,
    type: 3}
  m_PrefabInternal: {fileID: 80}
  m_GameObject: {fileID: 7}
  m_Mesh: {fileID: 4300000, guid: 4a1142b17f64bbc40871f76529421f77, type: 3}
--- !u!33 &66
MeshFilter:
  m_ObjectHideFlags: 0
  m_PrefabParentObject: {fileID: 3300002, guid: 38972d9a807375f4fbdbf2e076aa183f,
    type: 3}
  m_PrefabInternal: {fileID: 81}
  m_GameObject: {fileID: 8}
  m_Mesh: {fileID: 4300004, guid: 38972d9a807375f4fbdbf2e076aa183f, type: 3}
--- !u!33 &67
MeshFilter:
  m_ObjectHideFlags: 0
  m_PrefabParentObject: {fileID: 3300000, guid: 38972d9a807375f4fbdbf2e076aa183f,
    type: 3}
  m_PrefabInternal: {fileID: 81}
  m_GameObject: {fileID: 10}
  m_Mesh: {fileID: 4300002, guid: 38972d9a807375f4fbdbf2e076aa183f, type: 3}
--- !u!33 &68
MeshFilter:
  m_ObjectHideFlags: 0
  m_PrefabParentObject: {fileID: 3300004, guid: 38972d9a807375f4fbdbf2e076aa183f,
    type: 3}
  m_PrefabInternal: {fileID: 81}
  m_GameObject: {fileID: 11}
  m_Mesh: {fileID: 4300006, guid: 38972d9a807375f4fbdbf2e076aa183f, type: 3}
--- !u!33 &69
MeshFilter:
  m_ObjectHideFlags: 0
  m_PrefabParentObject: {fileID: 3300002, guid: a97bdcf094fff104d9f67b004b505dd0,
    type: 3}
  m_PrefabInternal: {fileID: 82}
  m_GameObject: {fileID: 12}
  m_Mesh: {fileID: 4300004, guid: a97bdcf094fff104d9f67b004b505dd0, type: 3}
--- !u!33 &70
MeshFilter:
  m_ObjectHideFlags: 0
  m_PrefabParentObject: {fileID: 3300000, guid: a97bdcf094fff104d9f67b004b505dd0,
    type: 3}
  m_PrefabInternal: {fileID: 82}
  m_GameObject: {fileID: 13}
  m_Mesh: {fileID: 4300006, guid: a97bdcf094fff104d9f67b004b505dd0, type: 3}
--- !u!33 &71
MeshFilter:
  m_ObjectHideFlags: 0
  m_PrefabParentObject: {fileID: 3300000, guid: 5f603b8c73c81724b9bdc1c65764eb4c,
    type: 3}
  m_PrefabInternal: {fileID: 83}
  m_GameObject: {fileID: 16}
  m_Mesh: {fileID: 4300002, guid: 5f603b8c73c81724b9bdc1c65764eb4c, type: 3}
--- !u!33 &72
MeshFilter:
  m_ObjectHideFlags: 0
  m_PrefabParentObject: {fileID: 3300000, guid: c455996f6e6b49d418895f41b5216202,
    type: 3}
  m_PrefabInternal: {fileID: 84}
  m_GameObject: {fileID: 18}
  m_Mesh: {fileID: 4300002, guid: c455996f6e6b49d418895f41b5216202, type: 3}
--- !u!33 &73
MeshFilter:
  m_ObjectHideFlags: 0
  m_PrefabParentObject: {fileID: 3300000, guid: 5ae1b6d4c894f9c449d33837a633a8ec,
    type: 3}
  m_PrefabInternal: {fileID: 85}
  m_GameObject: {fileID: 19}
  m_Mesh: {fileID: 4300000, guid: 5ae1b6d4c894f9c449d33837a633a8ec, type: 3}
--- !u!33 &74
MeshFilter:
  m_ObjectHideFlags: 0
  m_PrefabParentObject: {fileID: 3300000, guid: 61566139d5c1f844aaa682fa50106e58,
    type: 3}
  m_PrefabInternal: {fileID: 86}
  m_GameObject: {fileID: 21}
  m_Mesh: {fileID: 4300000, guid: 61566139d5c1f844aaa682fa50106e58, type: 3}
--- !u!33 &75
MeshFilter:
  m_ObjectHideFlags: 0
  m_PrefabParentObject: {fileID: 3300000, guid: 74cbada03bcd41d49acec56746acf71e,
    type: 3}
  m_PrefabInternal: {fileID: 87}
  m_GameObject: {fileID: 23}
  m_Mesh: {fileID: 4300000, guid: 74cbada03bcd41d49acec56746acf71e, type: 3}
--- !u!81 &76
AudioListener:
  m_ObjectHideFlags: 0
  m_PrefabParentObject: {fileID: 0}
  m_PrefabInternal: {fileID: 0}
  m_GameObject: {fileID: 27}
  m_Enabled: 1
--- !u!92 &77
Behaviour:
  m_ObjectHideFlags: 0
  m_PrefabParentObject: {fileID: 0}
  m_PrefabInternal: {fileID: 0}
  m_GameObject: {fileID: 27}
  m_Enabled: 1
--- !u!108 &78
Light:
  m_ObjectHideFlags: 0
  m_PrefabParentObject: {fileID: 0}
  m_PrefabInternal: {fileID: 0}
  m_GameObject: {fileID: 26}
  m_Enabled: 1
  serializedVersion: 8
  m_Type: 1
  m_Color: {r: 1, g: 1, b: 1, a: 1}
  m_Intensity: 1
  m_Range: 10
  m_SpotAngle: 30
  m_CookieSize: 10
  m_Shadows:
    m_Type: 0
    m_Resolution: -1
    m_CustomResolution: -1
    m_Strength: 1
    m_Bias: 0.05
    m_NormalBias: 0.4
    m_NearPlane: 0.2
  m_Cookie: {fileID: 0}
  m_DrawHalo: 0
  m_Flare: {fileID: 0}
  m_RenderMode: 0
  m_CullingMask:
    serializedVersion: 2
    m_Bits: 4294967295
  m_Lightmapping: 1
  m_AreaSize: {x: 1, y: 1}
  m_BounceIntensity: 1
  m_ColorTemperature: 6570
  m_UseColorTemperature: 0
  m_ShadowRadius: 0
  m_ShadowAngle: 0
--- !u!124 &79
Behaviour:
  m_ObjectHideFlags: 0
  m_PrefabParentObject: {fileID: 0}
  m_PrefabInternal: {fileID: 0}
  m_GameObject: {fileID: 27}
  m_Enabled: 1
--- !u!1001 &80
Prefab:
  m_ObjectHideFlags: 0
  serializedVersion: 2
  m_Modification:
    m_TransformParent: {fileID: 48}
    m_Modifications:
    - target: {fileID: 400000, guid: 4a1142b17f64bbc40871f76529421f77, type: 3}
      propertyPath: m_LocalRotation.y
      value: 0
      objectReference: {fileID: 0}
    - target: {fileID: 400000, guid: 4a1142b17f64bbc40871f76529421f77, type: 3}
      propertyPath: m_LocalRotation.z
      value: 0
      objectReference: {fileID: 0}
    - target: {fileID: 400000, guid: 4a1142b17f64bbc40871f76529421f77, type: 3}
      propertyPath: m_LocalPosition.x
      value: 0
      objectReference: {fileID: 0}
    - target: {fileID: 400000, guid: 4a1142b17f64bbc40871f76529421f77, type: 3}
      propertyPath: m_LocalPosition.z
      value: -1
      objectReference: {fileID: 0}
    m_RemovedComponents: []
  m_ParentPrefab: {fileID: 100100000, guid: 4a1142b17f64bbc40871f76529421f77, type: 3}
  m_RootGameObject: {fileID: 5}
  m_IsPrefabParent: 0
--- !u!1001 &81
Prefab:
  m_ObjectHideFlags: 0
  serializedVersion: 2
  m_Modification:
    m_TransformParent: {fileID: 48}
    m_Modifications:
    - target: {fileID: 400000, guid: 38972d9a807375f4fbdbf2e076aa183f, type: 3}
      propertyPath: m_LocalRotation.y
      value: 0
      objectReference: {fileID: 0}
    - target: {fileID: 400000, guid: 38972d9a807375f4fbdbf2e076aa183f, type: 3}
      propertyPath: m_LocalRotation.z
      value: 0
      objectReference: {fileID: 0}
    - target: {fileID: 400000, guid: 38972d9a807375f4fbdbf2e076aa183f, type: 3}
      propertyPath: m_LocalPosition.x
      value: 1.110622
      objectReference: {fileID: 0}
    m_RemovedComponents: []
  m_ParentPrefab: {fileID: 100100000, guid: 38972d9a807375f4fbdbf2e076aa183f, type: 3}
  m_RootGameObject: {fileID: 9}
  m_IsPrefabParent: 0
--- !u!1001 &82
Prefab:
  m_ObjectHideFlags: 0
  serializedVersion: 2
  m_Modification:
    m_TransformParent: {fileID: 48}
    m_Modifications:
    - target: {fileID: 400002, guid: a97bdcf094fff104d9f67b004b505dd0, type: 3}
      propertyPath: m_LocalRotation.y
      value: 0
      objectReference: {fileID: 0}
    - target: {fileID: 400002, guid: a97bdcf094fff104d9f67b004b505dd0, type: 3}
      propertyPath: m_LocalRotation.z
      value: 0
      objectReference: {fileID: 0}
    - target: {fileID: 400002, guid: a97bdcf094fff104d9f67b004b505dd0, type: 3}
      propertyPath: m_LocalPosition.x
      value: 0.6819666
      objectReference: {fileID: 0}
    - target: {fileID: 400002, guid: a97bdcf094fff104d9f67b004b505dd0, type: 3}
      propertyPath: m_LocalPosition.y
      value: 0.4751892
      objectReference: {fileID: 0}
    - target: {fileID: 400002, guid: a97bdcf094fff104d9f67b004b505dd0, type: 3}
      propertyPath: m_LocalPosition.z
      value: 0.7170386
      objectReference: {fileID: 0}
    m_RemovedComponents: []
  m_ParentPrefab: {fileID: 100100000, guid: a97bdcf094fff104d9f67b004b505dd0, type: 3}
  m_RootGameObject: {fileID: 14}
  m_IsPrefabParent: 0
--- !u!1001 &83
Prefab:
  m_ObjectHideFlags: 0
  serializedVersion: 2
  m_Modification:
    m_TransformParent: {fileID: 48}
    m_Modifications:
    - target: {fileID: 400002, guid: 5f603b8c73c81724b9bdc1c65764eb4c, type: 3}
      propertyPath: m_LocalRotation.y
      value: 0.57858044
      objectReference: {fileID: 0}
    - target: {fileID: 400002, guid: 5f603b8c73c81724b9bdc1c65764eb4c, type: 3}
      propertyPath: m_LocalRotation.z
      value: 0
      objectReference: {fileID: 0}
    - target: {fileID: 400002, guid: 5f603b8c73c81724b9bdc1c65764eb4c, type: 3}
      propertyPath: m_LocalRotation.w
      value: 0.8156253
      objectReference: {fileID: 0}
    - target: {fileID: 400002, guid: 5f603b8c73c81724b9bdc1c65764eb4c, type: 3}
      propertyPath: m_LocalPosition.x
      value: -1.281634
      objectReference: {fileID: 0}
    - target: {fileID: 400002, guid: 5f603b8c73c81724b9bdc1c65764eb4c, type: 3}
      propertyPath: m_LocalPosition.y
      value: 0.1350031
      objectReference: {fileID: 0}
    - target: {fileID: 400002, guid: 5f603b8c73c81724b9bdc1c65764eb4c, type: 3}
      propertyPath: m_LocalPosition.z
      value: 0.3277045
      objectReference: {fileID: 0}
    m_RemovedComponents: []
  m_ParentPrefab: {fileID: 100100000, guid: 5f603b8c73c81724b9bdc1c65764eb4c, type: 3}
  m_RootGameObject: {fileID: 15}
  m_IsPrefabParent: 0
--- !u!1001 &84
Prefab:
  m_ObjectHideFlags: 0
  serializedVersion: 2
  m_Modification:
    m_TransformParent: {fileID: 48}
    m_Modifications:
    - target: {fileID: 400002, guid: c455996f6e6b49d418895f41b5216202, type: 3}
      propertyPath: m_LocalRotation.y
      value: 0
      objectReference: {fileID: 0}
    - target: {fileID: 400002, guid: c455996f6e6b49d418895f41b5216202, type: 3}
      propertyPath: m_LocalRotation.z
      value: 0
      objectReference: {fileID: 0}
    - target: {fileID: 400002, guid: c455996f6e6b49d418895f41b5216202, type: 3}
      propertyPath: m_LocalPosition.x
      value: -0.5604876
      objectReference: {fileID: 0}
    - target: {fileID: 400002, guid: c455996f6e6b49d418895f41b5216202, type: 3}
      propertyPath: m_LocalPosition.y
      value: 0.40147972
      objectReference: {fileID: 0}
    - target: {fileID: 400002, guid: c455996f6e6b49d418895f41b5216202, type: 3}
      propertyPath: m_LocalPosition.z
      value: 1.8187208
      objectReference: {fileID: 0}
    m_RemovedComponents: []
  m_ParentPrefab: {fileID: 100100000, guid: c455996f6e6b49d418895f41b5216202, type: 3}
  m_RootGameObject: {fileID: 17}
  m_IsPrefabParent: 0
--- !u!1001 &85
Prefab:
  m_ObjectHideFlags: 0
  serializedVersion: 2
  m_Modification:
    m_TransformParent: {fileID: 48}
    m_Modifications:
    - target: {fileID: 400002, guid: 5ae1b6d4c894f9c449d33837a633a8ec, type: 3}
      propertyPath: m_LocalRotation.y
      value: 0.50944495
      objectReference: {fileID: 0}
    - target: {fileID: 400002, guid: 5ae1b6d4c894f9c449d33837a633a8ec, type: 3}
      propertyPath: m_LocalRotation.z
      value: 0
      objectReference: {fileID: 0}
    - target: {fileID: 400002, guid: 5ae1b6d4c894f9c449d33837a633a8ec, type: 3}
      propertyPath: m_LocalRotation.w
      value: 0.8605033
      objectReference: {fileID: 0}
    - target: {fileID: 400002, guid: 5ae1b6d4c894f9c449d33837a633a8ec, type: 3}
      propertyPath: m_LocalPosition.x
      value: 1.1104612
      objectReference: {fileID: 0}
    - target: {fileID: 400002, guid: 5ae1b6d4c894f9c449d33837a633a8ec, type: 3}
      propertyPath: m_LocalPosition.z
      value: -1
      objectReference: {fileID: 0}
    m_RemovedComponents: []
  m_ParentPrefab: {fileID: 100100000, guid: 5ae1b6d4c894f9c449d33837a633a8ec, type: 3}
  m_RootGameObject: {fileID: 20}
  m_IsPrefabParent: 0
--- !u!1001 &86
Prefab:
  m_ObjectHideFlags: 0
  serializedVersion: 2
  m_Modification:
    m_TransformParent: {fileID: 48}
    m_Modifications:
    - target: {fileID: 400002, guid: 61566139d5c1f844aaa682fa50106e58, type: 3}
      propertyPath: m_LocalRotation.y
      value: 0.16481043
      objectReference: {fileID: 0}
    - target: {fileID: 400002, guid: 61566139d5c1f844aaa682fa50106e58, type: 3}
      propertyPath: m_LocalRotation.z
      value: 0
      objectReference: {fileID: 0}
    - target: {fileID: 400002, guid: 61566139d5c1f844aaa682fa50106e58, type: 3}
      propertyPath: m_LocalRotation.w
      value: 0.9863253
      objectReference: {fileID: 0}
    - target: {fileID: 400002, guid: 61566139d5c1f844aaa682fa50106e58, type: 3}
      propertyPath: m_LocalPosition.x
      value: -0.17189002
      objectReference: {fileID: 0}
    - target: {fileID: 400002, guid: 61566139d5c1f844aaa682fa50106e58, type: 3}
      propertyPath: m_LocalPosition.y
      value: 0.18015194
      objectReference: {fileID: 0}
    m_RemovedComponents: []
  m_ParentPrefab: {fileID: 100100000, guid: 61566139d5c1f844aaa682fa50106e58, type: 3}
  m_RootGameObject: {fileID: 22}
  m_IsPrefabParent: 0
--- !u!1001 &87
Prefab:
  m_ObjectHideFlags: 0
  serializedVersion: 2
  m_Modification:
    m_TransformParent: {fileID: 48}
    m_Modifications:
    - target: {fileID: 400002, guid: 74cbada03bcd41d49acec56746acf71e, type: 3}
      propertyPath: m_LocalRotation.y
      value: -0.20535421
      objectReference: {fileID: 0}
    - target: {fileID: 400002, guid: 74cbada03bcd41d49acec56746acf71e, type: 3}
      propertyPath: m_LocalRotation.z
      value: 0
      objectReference: {fileID: 0}
    - target: {fileID: 400002, guid: 74cbada03bcd41d49acec56746acf71e, type: 3}
      propertyPath: m_LocalRotation.w
      value: 0.9786877
      objectReference: {fileID: 0}
    - target: {fileID: 400002, guid: 74cbada03bcd41d49acec56746acf71e, type: 3}
      propertyPath: m_LocalPosition.x
      value: -1.1607732
      objectReference: {fileID: 0}
    - target: {fileID: 400002, guid: 74cbada03bcd41d49acec56746acf71e, type: 3}
      propertyPath: m_LocalPosition.z
      value: -1
      objectReference: {fileID: 0}
    m_RemovedComponents: []
  m_ParentPrefab: {fileID: 100100000, guid: 74cbada03bcd41d49acec56746acf71e, type: 3}
  m_RootGameObject: {fileID: 24}
  m_IsPrefabParent: 0
--- !u!111 &88
Animation:
  m_ObjectHideFlags: 0
  m_PrefabParentObject: {fileID: 11100000, guid: 74cbada03bcd41d49acec56746acf71e,
    type: 3}
  m_PrefabInternal: {fileID: 87}
  m_GameObject: {fileID: 24}
  m_Enabled: 1
  serializedVersion: 3
  m_Animation: {fileID: 7400000, guid: 74cbada03bcd41d49acec56746acf71e, type: 3}
  m_Animations:
  - {fileID: 7400000, guid: 74cbada03bcd41d49acec56746acf71e, type: 3}
  m_WrapMode: 0
  m_PlayAutomatically: 1
  m_AnimatePhysics: 0
  m_CullingType: 0
--- !u!111 &89
Animation:
  m_ObjectHideFlags: 0
  m_PrefabParentObject: {fileID: 11100000, guid: 61566139d5c1f844aaa682fa50106e58,
    type: 3}
  m_PrefabInternal: {fileID: 86}
  m_GameObject: {fileID: 22}
  m_Enabled: 1
  serializedVersion: 3
  m_Animation: {fileID: 7400000, guid: 61566139d5c1f844aaa682fa50106e58, type: 3}
  m_Animations:
  - {fileID: 7400000, guid: 61566139d5c1f844aaa682fa50106e58, type: 3}
  m_WrapMode: 0
  m_PlayAutomatically: 1
  m_AnimatePhysics: 0
  m_CullingType: 0
--- !u!111 &90
Animation:
  m_ObjectHideFlags: 0
  m_PrefabParentObject: {fileID: 11100000, guid: 5ae1b6d4c894f9c449d33837a633a8ec,
    type: 3}
  m_PrefabInternal: {fileID: 85}
  m_GameObject: {fileID: 20}
  m_Enabled: 1
  serializedVersion: 3
  m_Animation: {fileID: 7400000, guid: 5ae1b6d4c894f9c449d33837a633a8ec, type: 3}
  m_Animations:
  - {fileID: 7400000, guid: 5ae1b6d4c894f9c449d33837a633a8ec, type: 3}
  m_WrapMode: 0
  m_PlayAutomatically: 1
  m_AnimatePhysics: 0
  m_CullingType: 0
--- !u!111 &91
Animation:
  m_ObjectHideFlags: 0
  m_PrefabParentObject: {fileID: 11100000, guid: c455996f6e6b49d418895f41b5216202,
    type: 3}
  m_PrefabInternal: {fileID: 84}
  m_GameObject: {fileID: 17}
  m_Enabled: 1
  serializedVersion: 3
  m_Animation: {fileID: 7400000, guid: c455996f6e6b49d418895f41b5216202, type: 3}
  m_Animations:
  - {fileID: 7400000, guid: c455996f6e6b49d418895f41b5216202, type: 3}
  m_WrapMode: 0
  m_PlayAutomatically: 1
  m_AnimatePhysics: 0
  m_CullingType: 0
--- !u!111 &92
Animation:
  m_ObjectHideFlags: 0
  m_PrefabParentObject: {fileID: 11100000, guid: 5f603b8c73c81724b9bdc1c65764eb4c,
    type: 3}
  m_PrefabInternal: {fileID: 83}
  m_GameObject: {fileID: 15}
  m_Enabled: 1
  serializedVersion: 3
  m_Animation: {fileID: 7400000, guid: 5f603b8c73c81724b9bdc1c65764eb4c, type: 3}
  m_Animations:
  - {fileID: 7400000, guid: 5f603b8c73c81724b9bdc1c65764eb4c, type: 3}
  m_WrapMode: 0
  m_PlayAutomatically: 1
  m_AnimatePhysics: 0
  m_CullingType: 0
--- !u!111 &93
Animation:
  m_ObjectHideFlags: 0
  m_PrefabParentObject: {fileID: 11100000, guid: a97bdcf094fff104d9f67b004b505dd0,
    type: 3}
  m_PrefabInternal: {fileID: 82}
  m_GameObject: {fileID: 14}
  m_Enabled: 1
  serializedVersion: 3
  m_Animation: {fileID: 7400000, guid: a97bdcf094fff104d9f67b004b505dd0, type: 3}
  m_Animations:
  - {fileID: 7400000, guid: a97bdcf094fff104d9f67b004b505dd0, type: 3}
  m_WrapMode: 0
  m_PlayAutomatically: 1
  m_AnimatePhysics: 0
  m_CullingType: 0
--- !u!111 &94
Animation:
  m_ObjectHideFlags: 0
  m_PrefabParentObject: {fileID: 11100000, guid: 38972d9a807375f4fbdbf2e076aa183f,
    type: 3}
  m_PrefabInternal: {fileID: 81}
  m_GameObject: {fileID: 9}
  m_Enabled: 1
  serializedVersion: 3
  m_Animation: {fileID: 7400000, guid: 38972d9a807375f4fbdbf2e076aa183f, type: 3}
  m_Animations:
  - {fileID: 7400000, guid: 38972d9a807375f4fbdbf2e076aa183f, type: 3}
  m_WrapMode: 0
  m_PlayAutomatically: 1
  m_AnimatePhysics: 0
  m_CullingType: 0
--- !u!111 &95
Animation:
  m_ObjectHideFlags: 0
  m_PrefabParentObject: {fileID: 11100000, guid: 4a1142b17f64bbc40871f76529421f77,
    type: 3}
  m_PrefabInternal: {fileID: 80}
  m_GameObject: {fileID: 5}
  m_Enabled: 1
  serializedVersion: 3
  m_Animation: {fileID: 7400000, guid: 4a1142b17f64bbc40871f76529421f77, type: 3}
  m_Animations:
  - {fileID: 7400000, guid: 4a1142b17f64bbc40871f76529421f77, type: 3}
  m_WrapMode: 0
  m_PlayAutomatically: 1
  m_AnimatePhysics: 0
  m_CullingType: 0
